module eltaljohn/first-go-project

go 1.14

require (
	github.com/dgrijalva/jwt-go v3.2.0+incompatible // indirect
	github.com/labstack/echo v3.3.10+incompatible
	github.com/labstack/gommon v0.3.0 // indirect
	github.com/lib/pq v1.10.1
	github.com/valyala/fasttemplate v1.2.1 // indirect
	golang.org/x/crypto v0.0.0-20210513164829-c07d793c2f9a // indirect
)
